Isolating Data with dplyr
…
arrange() - which moves important rows to the top of a data frame

Each function takes a data frame or tibble as it’s first argument and returns a new data frame or tibble as its output.

select()

select() extracts columns of a data frame and returns the columns as a new data frame. To use select(), pass it the name of a data frame to extract columns from, and then the names of the columns to extract. The column names do not need to appear in quotation marks or be prefixed with a $; select() knows to find them in the data frame that you supply.

Exercise - select()

Use the example below to get a feel for select(). Can you extract just the name column? How about the name and year columns? How about all of the columns except prop?

select(babynames, name, sex)

# A tibble: 1,924,665 x 2
   name      sex  
   <chr>     <chr>
 1 Mary      F    
 2 Anna      F    
 3 Emma      F    
 4 Elizabeth F    
 5 Minnie    F    
 6 Margaret  F    
 7 Ida       F    
 8 Alice     F    
 9 Bertha    F    
10 Sarah     F    
# … with 1,924,655 more rows
…
Exercise - arrange()

Use the code chunk below to arrange babynames by n. Can you tell what the smallest value of n is?

arrange(babynames, n)

"Good job! The compiler of `babynames` used 5 as a cutoff; a name only made it into babynames for a given year and gender if it was used for five or more children."

Tie breakers

If you supply additional column names, arrange() will use them as tie breakers to order rows that have identical values in the earlier columns. Add to the code below, to make prop a tie breaker. The result should first order rows by value of n and then reorder rows within each value of n by values of prop.

arrange(babynames, n)

# A tibble: 1,924,665 x 5
    year sex   name          n      prop
   <dbl> <chr> <chr>     <int>     <dbl>
 1  1880 F     Adelle        5 0.0000512
 2  1880 F     Adina         5 0.0000512
 3  1880 F     Adrienne      5 0.0000512
 4  1880 F     Albertine     5 0.0000512
 5  1880 F     Alys          5 0.0000512
 6  1880 F     Ana           5 0.0000512
 7  1880 F     Araminta      5 0.0000512
 8  1880 F     Arthur        5 0.0000512
 9  1880 F     Birtha        5 0.0000512
10  1880 F     Bulah         5 0.0000512
# … with 1,924,655 more rows

arrange(babynames, n, prop)

desc

If you would rather arrange rows in the opposite order, i.e. from large values to small values, surround a column name with desc(). arrange() will reorder the rows based on the largest values to the smallest.

Add a desc() to the code below to display the most popular name for 2015 (the largest year in the dataset) instead of 1880 (the smallest year in the dataset).

arrange(babynames, year, desc(prop))

# A tibble: 1,924,665 x 5
    year sex   name        n   prop
   <dbl> <chr> <chr>   <int>  <dbl>
 1  1880 M     John     9655 0.0815
 2  1880 M     William  9532 0.0805
 3  1880 F     Mary     7065 0.0724
 4  1880 M     James    5927 0.0501
 5  1880 M     Charles  5348 0.0452
 6  1880 M     George   5126 0.0433
 7  1880 M     Frank    3242 0.0274
 8  1880 F     Anna     2604 0.0267
 9  1880 M     Joseph   2632 0.0222
10  1880 M     Thomas   2534 0.0214
# … with 1,924,655 more rows
…
Notice how each dplyr function takes a data frame as input and returns a data frame as output. This makes the functions easy to use in a step by step fashion. For example, you could:

Filter babynames to just boys born in 2015

Select the name and n columns from the result

Arrange those columns so that the most popular names appear near the top.

boys_2015 <- filter(babynames, year == 2015, sex == "M")
boys_2015 <- select(boys_2015, name, n)
boys_2015 <- arrange(boys_2015, desc(n))
boys_2015

## # A tibble: 14,024 x 2
##    name          n
##    <chr>     <int>
##  1 Noah      19613
##  2 Liam      18355
##  3 Mason     16610
##  4 Jacob     15938
##  5 William   15889
##  6 Ethan     15069
##  7 James     14799
##  8 Alexander 14531
##  9 Michael   14413
## 10 Benjamin  13692
## # … with 14,014 more rows
…
arrange(select(filter(babynames, year == 2015, sex == "M"), name, n), desc(n))

The dplyr package provides a third way to write sequences of functions: the pipe.

%>%

The pipe operator %>% performs an extremely simple task: it passes the result on its left into the first argument of the function on its right. Or put another way, x %>% f(y) is the same as f(x, y). This piece of code punctuation makes it easy to write and read series of functions that are applied in a step by step way. For example, we can use the pipe to rewrite our code above:

babynames %>% 
  filter(year == 2015, sex == "M") %>% 
  select(name, n) %>% 
  arrange(desc(n))

## # A tibble: 14,024 x 2
##    name          n
##    <chr>     <int>
##  1 Noah      19613
##  2 Liam      18355
##  3 Mason     16610
##  4 Jacob     15938
##  5 William   15889
##  6 Ethan     15069
##  7 James     14799
##  8 Alexander 14531
##  9 Michael   14413
## 10 Benjamin  13692
## # … with 14,014 more rows
…
